Grid,Test,Generations,Time,Avg Gen,Avg Time
2 5 4 3 1 6 8 9 7 7 6 3 9 8 5 1 2 4 1 9 8 4 2 7 6 5 3 9 8 1 7 5 3 2 4 6 6 3 2 8 4 9 7 1 5 5 4 7 2 6 1 9 3 8 4 7 5 6 9 2 3 8 1 3 1 9 5 7 8 4 6 2 8 2 6 1 3 4 5 7 9,1,644,8208,882,"10435,7"
2 5 4 3 1 6 8 9 7 7 6 3 9 8 5 1 2 4 1 9 8 4 2 7 6 5 3 9 8 1 7 5 3 2 4 6 6 3 2 8 4 9 7 1 5 5 4 7 2 6 1 9 3 8 4 7 5 6 9 2 3 8 1 3 1 9 5 7 8 4 6 2 8 2 6 1 3 4 5 7 9,2,613,7652,882,"10435,7"
2 5 4 3 1 6 8 9 7 7 6 3 9 8 5 1 2 4 1 9 8 4 2 7 6 5 3 9 8 1 7 5 3 2 4 6 6 3 2 8 4 9 7 1 5 5 4 7 2 6 1 9 3 8 4 7 5 6 9 2 3 8 1 3 1 9 5 7 8 4 6 2 8 2 6 1 3 4 5 7 9,3,493,6026,882,"10435,7"
2 5 4 3 1 6 8 9 7 7 6 3 9 8 5 1 2 4 1 9 8 4 2 7 6 5 3 9 8 1 7 5 3 2 4 6 6 3 2 8 4 9 7 1 5 5 4 7 2 6 1 9 3 8 4 7 5 6 9 2 3 8 1 3 1 9 5 7 8 4 6 2 8 2 6 1 3 4 5 7 9,4,1817,20831,882,"10435,7"
2 5 4 3 1 6 8 9 7 7 6 3 9 8 5 1 2 4 1 9 8 4 2 7 6 5 3 9 8 1 7 5 3 2 4 6 6 3 2 8 4 9 7 1 5 5 4 7 2 6 1 9 3 8 4 7 5 6 9 2 3 8 1 3 1 9 5 7 8 4 6 2 8 2 6 1 3 4 5 7 9,5,2005,23140,882,"10435,7"
2 5 4 3 1 6 8 9 7 7 6 3 9 8 5 1 2 4 1 9 8 4 2 7 6 5 3 9 8 1 7 5 3 2 4 6 6 3 2 8 4 9 7 1 5 5 4 7 2 6 1 9 3 8 4 7 5 6 9 2 3 8 1 3 1 9 5 7 8 4 6 2 8 2 6 1 3 4 5 7 9,6,482,5842,882,"10435,7"
2 5 4 3 1 6 8 9 7 7 6 3 9 8 5 1 2 4 1 9 8 4 2 7 6 5 3 9 8 1 7 5 3 2 4 6 6 3 2 8 4 9 7 1 5 5 4 7 2 6 1 9 3 8 4 7 5 6 9 2 3 8 1 3 1 9 5 7 8 4 6 2 8 2 6 1 3 4 5 7 9,7,1242,14261,882,"10435,7"
2 5 4 3 1 6 8 9 7 7 6 3 9 8 5 1 2 4 1 9 8 4 2 7 6 5 3 9 8 1 7 5 3 2 4 6 6 3 2 8 4 9 7 1 5 5 4 7 2 6 1 9 3 8 4 7 5 6 9 2 3 8 1 3 1 9 5 7 8 4 6 2 8 2 6 1 3 4 5 7 9,8,469,5639,882,"10435,7"
2 5 4 3 1 6 8 9 7 7 6 3 9 8 5 1 2 4 1 9 8 4 2 7 6 5 3 9 8 1 7 5 3 2 4 6 6 3 2 8 4 9 7 1 5 5 4 7 2 6 1 9 3 8 4 7 5 6 9 2 3 8 1 3 1 9 5 7 8 4 6 2 8 2 6 1 3 4 5 7 9,9,575,6962,882,"10435,7"
2 5 4 3 1 6 8 9 7 7 6 3 9 8 5 1 2 4 1 9 8 4 2 7 6 5 3 9 8 1 7 5 3 2 4 6 6 3 2 8 4 9 7 1 5 5 4 7 2 6 1 9 3 8 4 7 5 6 9 2 3 8 1 3 1 9 5 7 8 4 6 2 8 2 6 1 3 4 5 7 9,10,480,5796,882,"10435,7"
